…
> Take a look at the `airline_safety` data frame included in the
> `fivethirtyeight` data package.
>
> This data frame is not in “tidy” format. How would you convert this
> data frame to be in “tidy” format, in particular so that it has a
> variable `fatalities_years` indicating the incident year and a
> variable `count` of the fatality counts?

``` r
airline_safety_smaller <- airline_safety |>
  select(airline, starts_with("fatalities"))
airline_safety_smaller
```

    # A tibble: 56 × 3
       airline               fatalities_85_99 fatalities_00_14
       <chr>                            <int>            <int>
     1 Aer Lingus                           0                0
     2 Aeroflot                           128               88
     3 Aerolineas Argentinas                0                0
     4 Aeromexico                          64                0
     5 Air Canada                           0                0
     6 Air France                          79              337
     7 Air India                          329              158
     8 Air New Zealand                      0                7
     9 Alaska Airlines                      0               88
    10 Alitalia                            50                0
    # ℹ 46 more rows
…
So I want to pivot longer, an put the names to `fatalities_years` and
the values to `count`. An I need to do this only on the columns with
`fatalities` in the name.

``` r
airline_safety_smaller |>
  pivot_longer(
    names_to = "fatalities_years",
    values_to = "count",
    cols = starts_with("fatalities")
  )
```

    # A tibble: 112 × 3
       airline               fatalities_years count
       <chr>                 <chr>            <int>
     1 Aer Lingus            fatalities_85_99     0
     2 Aer Lingus            fatalities_00_14     0
     3 Aeroflot              fatalities_85_99   128
     4 Aeroflot              fatalities_00_14    88
     5 Aerolineas Argentinas fatalities_85_99     0
     6 Aerolineas Argentinas fatalities_00_14     0
     7 Aeromexico            fatalities_85_99    64
     8 Aeromexico            fatalities_00_14     0
     9 Air Canada            fatalities_85_99     0
    10 Air Canada            fatalities_00_14     0
    # ℹ 102 more rows
…
> Convert the `dem_score` data frame into a “tidy” data frame and assign
> the name of `dem_score_tidy` to the resulting long-formatted data
> frame.

``` r
dem_score |>
  pivot_longer(
    names_to = "year",
    values_to = "democracy_score",
    cols = -country,
    names_transform = list(year = as.integer)
  )
```

    # A tibble: 864 × 3
       country    year democracy_score
       <chr>     <int>           <dbl>
     1 Albania    1952              -9
     2 Albania    1957              -9
     3 Albania    1962              -9
     4 Albania    1967              -9
     5 Albania    1972              -9
     6 Albania    1977              -9
     7 Albania    1982              -9
     8 Albania    1987              -9
     9 Albania    1992               5
    10 Argentina  1952              -9
    # ℹ 854 more rows
…
``` r
# convert to tidy
le_mess_tidy <-
le_mess |>
  pivot_longer(
    names_to = "year",
    values_to = "life_expectancy",
    cols = -country,
    names_transform = list(year = as.integer)
  )
le_mess_tidy
```

    # A tibble: 13,332 × 3
       country      year life_expectancy
       <chr>       <int>           <dbl>
     1 Afghanistan  1951            27.1
     2 Afghanistan  1952            27.7
     3 Afghanistan  1953            28.2
     4 Afghanistan  1954            28.7
     5 Afghanistan  1955            29.3
     6 Afghanistan  1956            29.8
     7 Afghanistan  1957            30.3
     8 Afghanistan  1958            30.9
     9 Afghanistan  1959            31.4
    10 Afghanistan  1960            31.9
    # ℹ 13,322 more rows
…
