…
Also “\* arrow: \[…\]” seems not formatted

#### !clarity

The Value in the table is not the same as in the text. Probably due to
default rounding. I’d prefer both to be the same

Get the fitted values and the residuals for all observations:

``` r
get_regression_points(demographics_model)
```

    # A tibble: 181 × 5
          ID fert_rate life_exp fert_rate_hat residual
       <int>     <dbl>    <dbl>         <dbl>    <dbl>
     1     1       4.3     53.6          5.23   -0.934
     2     2       1.4     79.5          1.69   -0.289
     3     3       2.7     78.0          1.89    0.813
     4     4       5       62.1          4.07    0.928
     5     5       1.6     77.8          1.92   -0.318
     6     6       1.9     78.3          1.85    0.052
     7     7       1.6     76.1          2.15   -0.548
     8     8       1.6     83.1          1.19    0.408
     9     9       1.5     82.3          1.30    0.195
    10    10       1.6     74.2          2.42   -0.819
    # ℹ 171 more rows
…
- D. A function that only handles categorical data in regression models.

#### LC5.9

> Generate a data frame of the residuals of the *Learning check* model
> where you used `obes_rate` as the explanatory x variable.

Generate data frame with regression points for `lm_fert_obes` model:

``` r
get_regression_points(lm_fert_obes)
```

    # A tibble: 181 × 5
          ID fert_rate obes_rate fert_rate_hat residual
       <int>     <dbl>     <dbl>         <dbl>    <dbl>
     1     1       4.3       5.5          3.19    1.11 
     2     2       1.4      21.7          2.38   -0.98 
     3     3       2.7      27.4          2.09    0.606
     4     4       5         8.2          3.06    1.94 
     5     5       1.6      18.9          2.52   -0.92 
     6     6       1.9      28.3          2.05   -0.149
     7     7       1.6      20.2          2.46   -0.855
     8     8       1.6      29            2.01   -0.414
     9     9       1.5      20.1          2.46   -0.96 
    10    10       1.6      19.9          2.47   -0.87 
    # ℹ 171 more rows
…
- *C. 3*

- D. 4

### 5.2.3 Observed/fitted values and residuals

Get the regression points from `lm_life_continent`:

``` r
get_regression_points(lm_life_continent,
                      ID = "country")
```

    # A tibble: 188 × 5
       country             life_exp continent     life_exp_hat residual
       <chr>                  <dbl> <fct>                <dbl>    <dbl>
     1 Afghanistan             53.6 Asia                  75.0  -21.3  
     2 Albania                 79.5 Europe                79.9   -0.438
     3 Algeria                 78.0 Africa                66.3   11.7  
     4 Andorra                 83.4 Europe                79.9    3.51 
     5 Angola                  62.1 Africa                66.3   -4.2  
     6 Antigua and Barbuda     77.8 North America         76.3    1.50 
     7 Argentina               78.3 South America         75.2    3.08 
     8 Armenia                 76.1 Asia                  75.0    1.18 
     9 Australia               83.1 Oceania               74.4    8.67 
    10 Austria                 82.3 Europe                79.9    2.36 
    # ℹ 178 more rows

``` r
# what happens without ID = "country" ?
get_regression_points(lm_life_continent)
```

    # A tibble: 188 × 5
          ID life_exp continent     life_exp_hat residual
       <int>    <dbl> <fct>                <dbl>    <dbl>
     1     1     53.6 Asia                  75.0  -21.3  
     2     2     79.5 Europe                79.9   -0.438
     3     3     78.0 Africa                66.3   11.7  
     4     4     83.4 Europe                79.9    3.51 
     5     5     62.1 Africa                66.3   -4.2  
     6     6     77.8 North America         76.3    1.50 
     7     7     78.3 South America         75.2    3.08 
     8     8     76.1 Asia                  75.0    1.18 
     9     9     83.1 Oceania               74.4    8.67 
    10    10     82.3 Europe                79.9    2.36 
    # ℹ 178 more rows
…
    The following objects are masked from 'package:stats':

        chisq.test, fisher.test

``` r
demographics_model |>
  # augment adds the model calculations to the corresponding dataframe
  augment() |>
  # mutate_if rounds the values of all numeric columns to two digits
  mutate_if(is.numeric, round, digits = 2) |>
  # clean names takes away the prefix signs and converts to snake case
  clean_names()
```

    # A tibble: 181 × 8
       fert_rate life_exp fitted resid   hat sigma cooksd std_resid
           <dbl>    <dbl>  <dbl> <dbl> <dbl> <dbl>  <dbl>     <dbl>
     1       4.3     53.6   5.23 -0.93  0.05  0.67   0.06     -1.42
     2       1.4     79.5   1.69 -0.29  0.01  0.68   0        -0.43
     3       2.7     78.0   1.89  0.81  0.01  0.67   0.01      1.21
     4       5       62.1   4.07  0.93  0.02  0.67   0.02      1.39
     5       1.6     77.8   1.92 -0.32  0.01  0.68   0        -0.47
     6       1.9     78.3   1.85  0.05  0.01  0.68   0         0.08
     7       1.6     76.1   2.15 -0.55  0.01  0.67   0        -0.82
     8       1.6     83.1   1.19  0.41  0.02  0.67   0         0.61
     9       1.5     82.3   1.3   0.2   0.01  0.68   0         0.29
    10       1.6     74.2   2.42 -0.82  0.01  0.67   0        -1.22
    # ℹ 171 more rows
