…
## 10.1

### Tidy data

``` r
UN_data_ch10 <- 
  un_member_states_2024 |> 
  select(country,
         life_exp = life_expectancy_2022,
         fert_rate = fertility_rate_2022) |> 
  na.omit()
UN_data_ch10
```

    # A tibble: 183 × 3
       country             life_exp fert_rate
       <chr>                  <dbl>     <dbl>
     1 Afghanistan             53.6       4.3
     2 Albania                 79.5       1.4
     3 Algeria                 78.0       2.7
     4 Angola                  62.1       5  
     5 Antigua and Barbuda     77.8       1.6
     6 Argentina               78.3       1.9
     7 Armenia                 76.1       1.6
     8 Australia               83.1       1.6
     9 Austria                 82.3       1.5
    10 Azerbaijan              74.2       1.6
    # ℹ 173 more rows
…
